"vertexlitgeneric"
{
	// Original shader: VertexLitTexture
	"$basetexture" "models/Weapons/V_hand/player_mask_face"
	"$bumpmap" "models/Weapons/V_hand/player_mask_face_n"
	//"$envmap" "env_cubemap"
	//"$envmaptint" "[ .34 .34 .34 ]"
	//"$normalmapalphaenvmapmask" 1

// -- From here down is new stuff which will only be applied if $phong is set to 1 --
	"$phong" "1"
	"$phongexponent" "25"
	"$phongboost"	"1"
	"$phongfresnelranges"	"[.2 0.4 1]"


}
